3.240000000000000000e+02 1.813099999999999989e-01
3.250000000000000000e+02 1.771600000000000119e-01
3.260000000000000000e+02 1.731399999999999884e-01
3.270000000000000000e+02 1.691999999999999893e-01
3.280000000000000000e+02 1.653399999999999870e-01
3.290000000000000000e+02 1.615900000000000114e-01
3.300000000000000000e+02 1.579099999999999948e-01
3.310000000000000000e+02 1.542999999999999927e-01
3.320000000000000000e+02 1.507999999999999896e-01
3.330000000000000000e+02 1.473599999999999910e-01
3.340000000000000000e+02 1.440200000000000091e-01
3.350000000000000000e+02 1.407299999999999940e-01
3.360000000000000000e+02 1.375399999999999956e-01
3.370000000000000000e+02 1.344100000000000017e-01
3.380000000000000000e+02 1.313400000000000123e-01
3.390000000000000000e+02 1.283400000000000096e-01
3.400000000000000000e+02 1.254200000000000037e-01
3.410000000000000000e+02 1.225699999999999984e-01
3.420000000000000000e+02 1.197799999999999976e-01
3.430000000000000000e+02 1.170400000000000051e-01
3.440000000000000000e+02 1.144000000000000017e-01
3.450000000000000000e+02 1.117999999999999966e-01
3.460000000000000000e+02 1.092299999999999938e-01
3.470000000000000000e+02 1.067499999999999977e-01
3.480000000000000000e+02 1.043300000000000061e-01
3.490000000000000000e+02 1.019400000000000028e-01
3.500000000000000000e+02 9.962000000000000022e-02
3.510000000000000000e+02 9.736999999999999822e-02
3.520000000000000000e+02 9.514000000000000234e-02
3.530000000000000000e+02 9.297999999999999321e-02
3.540000000000000000e+02 9.087000000000000632e-02
3.550000000000000000e+02 8.878999999999999393e-02
3.560000000000000000e+02 8.676999999999999991e-02
3.570000000000000000e+02 8.480000000000000038e-02
3.580000000000000000e+02 8.286999999999999922e-02
3.590000000000000000e+02 8.097999999999999643e-02
3.600000000000000000e+02 7.913000000000000589e-02
3.610000000000000000e+02 7.731999999999999984e-02
3.620000000000000000e+02 7.556999999999999829e-02
3.630000000000000000e+02 7.384000000000000286e-02
3.640000000000000000e+02 7.216000000000000192e-02
3.650000000000000000e+02 7.051999999999999935e-02
3.660000000000000000e+02 6.893000000000000516e-02
3.670000000000000000e+02 6.733999999999999708e-02
3.680000000000000000e+02 6.582999999999999963e-02
3.690000000000000000e+02 6.432000000000000217e-02
3.700000000000000000e+02 6.285999999999999921e-02
3.710000000000000000e+02 6.142999999999999849e-02
3.720000000000000000e+02 6.001999999999999696e-02
3.730000000000000000e+02 5.865999999999999687e-02
3.740000000000000000e+02 5.732000000000000289e-02
3.750000000000000000e+02 5.603000000000000341e-02
3.760000000000000000e+02 5.473000000000000087e-02
3.770000000000000000e+02 5.349000000000000282e-02
3.780000000000000000e+02 5.228000000000000008e-02
3.790000000000000000e+02 5.109000000000000347e-02
3.800000000000000000e+02 4.993000000000000216e-02
3.810000000000000000e+02 4.880000000000000310e-02
3.820000000000000000e+02 4.768000000000000016e-02
3.830000000000000000e+02 4.662000000000000172e-02
3.840000000000000000e+02 4.553000000000000103e-02
3.850000000000000000e+02 4.447999999999999871e-02
3.860000000000000000e+02 4.349000000000000088e-02
3.870000000000000000e+02 4.247999999999999693e-02
3.880000000000000000e+02 4.152000000000000135e-02
3.890000000000000000e+02 4.057999999999999802e-02
3.900000000000000000e+02 3.964000000000000162e-02
3.910000000000000000e+02 3.873999999999999666e-02
3.920000000000000000e+02 3.787000000000000088e-02
3.930000000000000000e+02 3.699999999999999817e-02
3.940000000000000000e+02 3.615999999999999770e-02
3.950000000000000000e+02 3.534000000000000336e-02
3.960000000000000000e+02 3.452000000000000207e-02
3.970000000000000000e+02 3.371999999999999997e-02
3.980000000000000000e+02 3.296000000000000318e-02
3.990000000000000000e+02 3.221000000000000252e-02
4.000000000000000000e+02 3.151000000000000328e-02
