random dZ
0.000 -9.990
0.001 -9.990
0.002 -9.990
0.003 -9.990
0.004 -9.990
0.005 -9.990
0.006 -9.990
0.007 -9.990
0.008 -9.990
0.009 -9.990
0.010 -9.990
0.011 -9.990
0.012 -9.990
0.013 -9.990
0.014 -9.990
0.015 -9.990
0.016 -9.990
0.017 -9.990
0.018 -9.990
0.019 -9.990
0.020 -9.990
0.021 -9.990
0.022 -9.990
0.023 -9.990
0.024 -9.980
0.025 -9.880
0.026 -9.770
0.027 -9.670
0.028 -9.580
0.029 -9.480
0.030 -9.400
0.031 -9.310
0.032 -9.230
0.033 -9.140
0.034 -9.070
0.035 -8.990
0.036 -8.920
0.037 -8.840
0.038 -8.770
0.039 -8.710
0.040 -8.640
0.041 -8.570
0.042 -8.510
0.043 -8.450
0.044 -8.390
0.045 -8.330
0.046 -8.270
0.047 -8.210
0.048 -8.160
0.049 -8.100
0.050 -8.050
0.051 -8.000
0.052 -7.950
0.053 -7.900
0.054 -7.850
0.055 -7.800
0.056 -7.750
0.057 -7.710
0.058 -7.660
0.059 -7.620
0.060 -7.570
0.061 -7.530
0.062 -7.490
0.063 -7.440
0.064 -7.400
0.065 -7.360
0.066 -7.320
0.067 -7.280
0.068 -7.240
0.069 -7.200
0.070 -7.170
0.071 -7.130
0.072 -7.090
0.073 -7.060
0.074 -7.020
0.075 -6.980
0.076 -6.950
0.077 -6.910
0.078 -6.880
0.079 -6.850
0.080 -6.810
0.081 -6.780
0.082 -6.750
0.083 -6.720
0.084 -6.690
0.085 -6.650
0.086 -6.620
0.087 -6.590
0.088 -6.560
0.089 -6.530
0.090 -6.500
0.091 -6.480
0.092 -6.450
0.093 -6.420
0.094 -6.390
0.095 -6.360
0.096 -6.330
0.097 -6.310
0.098 -6.280
0.099 -6.250
0.100 -6.230
0.101 -6.200
0.102 -6.180
0.103 -6.150
0.104 -6.120
0.105 -6.100
0.106 -6.070
0.107 -6.050
0.108 -6.020
0.109 -6.000
0.110 -5.980
0.111 -5.950
0.112 -5.930
0.113 -5.910
0.114 -5.880
0.115 -5.860
0.116 -5.840
0.117 -5.810
0.118 -5.790
0.119 -5.770
0.120 -5.750
0.121 -5.730
0.122 -5.700
0.123 -5.680
0.124 -5.660
0.125 -5.640
0.126 -5.620
0.127 -5.600
0.128 -5.580
0.129 -5.560
0.130 -5.540
0.131 -5.520
0.132 -5.500
0.133 -5.480
0.134 -5.460
0.135 -5.440
0.136 -5.420
0.137 -5.400
0.138 -5.380
0.139 -5.360
0.140 -5.340
0.141 -5.320
0.142 -5.300
0.143 -5.290
0.144 -5.270
0.145 -5.250
0.146 -5.230
0.147 -5.210
0.148 -5.200
0.149 -5.180
0.150 -5.160
0.151 -5.140
0.152 -5.130
0.153 -5.110
0.154 -5.090
0.155 -5.070
0.156 -5.060
0.157 -5.040
0.158 -5.020
0.159 -5.010
0.160 -4.990
0.161 -4.970
0.162 -4.960
0.163 -4.940
0.164 -4.930
0.165 -4.910
0.166 -4.890
0.167 -4.880
0.168 -4.860
0.169 -4.850
0.170 -4.830
0.171 -4.820
0.172 -4.800
0.173 -4.780
0.174 -4.770
0.175 -4.750
0.176 -4.740
0.177 -4.720
0.178 -4.710
0.179 -4.690
0.180 -4.680
0.181 -4.670
0.182 -4.650
0.183 -4.640
0.184 -4.620
0.185 -4.610
0.186 -4.590
0.187 -4.580
0.188 -4.570
0.189 -4.550
0.190 -4.540
0.191 -4.520
0.192 -4.510
0.193 -4.500
0.194 -4.480
0.195 -4.470
0.196 -4.460
0.197 -4.440
0.198 -4.430
0.199 -4.420
0.200 -4.400
0.201 -4.390
0.202 -4.380
0.203 -4.360
0.204 -4.350
0.205 -4.340
0.206 -4.330
0.207 -4.310
0.208 -4.300
0.209 -4.290
0.210 -4.270
0.211 -4.260
0.212 -4.250
0.213 -4.240
0.214 -4.220
0.215 -4.210
0.216 -4.200
0.217 -4.190
0.218 -4.180
0.219 -4.160
0.220 -4.150
0.221 -4.140
0.222 -4.130
0.223 -4.120
0.224 -4.100
0.225 -4.090
0.226 -4.080
0.227 -4.070
0.228 -4.060
0.229 -4.050
0.230 -4.040
0.231 -4.020
0.232 -4.010
0.233 -4.000
0.234 -3.990
0.235 -3.980
0.236 -3.970
0.237 -3.960
0.238 -3.950
0.239 -3.930
0.240 -3.920
0.241 -3.910
0.242 -3.900
0.243 -3.890
0.244 -3.880
0.245 -3.870
0.246 -3.860
0.247 -3.850
0.248 -3.840
0.249 -3.830
0.250 -3.820
0.251 -3.810
0.252 -3.790
0.253 -3.780
0.254 -3.770
0.255 -3.760
0.256 -3.750
0.257 -3.740
0.258 -3.730
0.259 -3.720
0.260 -3.710
0.261 -3.700
0.262 -3.690
0.263 -3.680
0.264 -3.670
0.265 -3.660
0.266 -3.650
0.267 -3.640
0.268 -3.630
0.269 -3.620
0.270 -3.610
0.271 -3.600
0.272 -3.590
0.273 -3.580
0.274 -3.570
0.275 -3.560
0.276 -3.560
0.277 -3.550
0.278 -3.540
0.279 -3.530
0.280 -3.520
0.281 -3.510
0.282 -3.500
0.283 -3.490
0.284 -3.480
0.285 -3.470
0.286 -3.460
0.287 -3.450
0.288 -3.440
0.289 -3.430
0.290 -3.430
0.291 -3.420
0.292 -3.410
0.293 -3.400
0.294 -3.390
0.295 -3.380
0.296 -3.370
0.297 -3.360
0.298 -3.350
0.299 -3.340
0.300 -3.340
0.301 -3.330
0.302 -3.320
0.303 -3.310
0.304 -3.300
0.305 -3.290
0.306 -3.280
0.307 -3.280
0.308 -3.270
0.309 -3.260
0.310 -3.250
0.311 -3.240
0.312 -3.230
0.313 -3.220
0.314 -3.220
0.315 -3.210
0.316 -3.200
0.317 -3.190
0.318 -3.180
0.319 -3.170
0.320 -3.170
0.321 -3.160
0.322 -3.150
0.323 -3.140
0.324 -3.130
0.325 -3.130
0.326 -3.120
0.327 -3.110
0.328 -3.100
0.329 -3.090
0.330 -3.080
0.331 -3.080
0.332 -3.070
0.333 -3.060
0.334 -3.050
0.335 -3.050
0.336 -3.040
0.337 -3.030
0.338 -3.020
0.339 -3.010
0.340 -3.010
0.341 -3.000
0.342 -2.990
0.343 -2.980
0.344 -2.980
0.345 -2.970
0.346 -2.960
0.347 -2.950
0.348 -2.950
0.349 -2.940
0.350 -2.930
0.351 -2.920
0.352 -2.920
0.353 -2.910
0.354 -2.900
0.355 -2.890
0.356 -2.890
0.357 -2.880
0.358 -2.870
0.359 -2.860
0.360 -2.860
0.361 -2.850
0.362 -2.840
0.363 -2.830
0.364 -2.830
0.365 -2.820
0.366 -2.810
0.367 -2.810
0.368 -2.800
0.369 -2.790
0.370 -2.780
0.371 -2.780
0.372 -2.770
0.373 -2.760
0.374 -2.760
0.375 -2.750
0.376 -2.740
0.377 -2.730
0.378 -2.730
0.379 -2.720
0.380 -2.710
0.381 -2.710
0.382 -2.700
0.383 -2.690
0.384 -2.690
0.385 -2.680
0.386 -2.670
0.387 -2.670
0.388 -2.660
0.389 -2.650
0.390 -2.650
0.391 -2.640
0.392 -2.630
0.393 -2.630
0.394 -2.620
0.395 -2.610
0.396 -2.610
0.397 -2.600
0.398 -2.590
0.399 -2.590
0.400 -2.580
0.401 -2.570
0.402 -2.570
0.403 -2.560
0.404 -2.550
0.405 -2.550
0.406 -2.540
0.407 -2.530
0.408 -2.530
0.409 -2.520
0.410 -2.510
0.411 -2.510
0.412 -2.500
0.413 -2.490
0.414 -2.490
0.415 -2.480
0.416 -2.480
0.417 -2.470
0.418 -2.460
0.419 -2.460
0.420 -2.450
0.421 -2.440
0.422 -2.440
0.423 -2.430
0.424 -2.430
0.425 -2.420
0.426 -2.410
0.427 -2.410
0.428 -2.400
0.429 -2.390
0.430 -2.390
0.431 -2.380
0.432 -2.380
0.433 -2.370
0.434 -2.360
0.435 -2.360
0.436 -2.350
0.437 -2.350
0.438 -2.340
0.439 -2.330
0.440 -2.330
0.441 -2.320
0.442 -2.320
0.443 -2.310
0.444 -2.300
0.445 -2.300
0.446 -2.290
0.447 -2.290
0.448 -2.280
0.449 -2.270
0.450 -2.270
0.451 -2.260
0.452 -2.260
0.453 -2.250
0.454 -2.250
0.455 -2.240
0.456 -2.230
0.457 -2.230
0.458 -2.220
0.459 -2.220
0.460 -2.210
0.461 -2.210
0.462 -2.200
0.463 -2.190
0.464 -2.190
0.465 -2.180
0.466 -2.180
0.467 -2.170
0.468 -2.170
0.469 -2.160
0.470 -2.150
0.471 -2.150
0.472 -2.140
0.473 -2.140
0.474 -2.130
0.475 -2.130
0.476 -2.120
0.477 -2.120
0.478 -2.110
0.479 -2.100
0.480 -2.100
0.481 -2.090
0.482 -2.090
0.483 -2.080
0.484 -2.080
0.485 -2.070
0.486 -2.070
0.487 -2.060
0.488 -2.060
0.489 -2.050
0.490 -2.040
0.491 -2.040
0.492 -2.030
0.493 -2.030
0.494 -2.020
0.495 -2.020
0.496 -2.010
0.497 -2.010
0.498 -2.000
0.499 -2.000
0.500 -1.990
0.501 -1.990
0.502 -1.980
0.503 -1.980
0.504 -1.970
0.505 -1.970
0.506 -1.960
0.507 -1.950
0.508 -1.950
0.509 -1.940
0.510 -1.940
0.511 -1.930
0.512 -1.930
0.513 -1.920
0.514 -1.920
0.515 -1.910
0.516 -1.910
0.517 -1.900
0.518 -1.900
0.519 -1.890
0.520 -1.890
0.521 -1.880
0.522 -1.880
0.523 -1.870
0.524 -1.870
0.525 -1.860
0.526 -1.860
0.527 -1.850
0.528 -1.850
0.529 -1.840
0.530 -1.840
0.531 -1.830
0.532 -1.830
0.533 -1.820
0.534 -1.820
0.535 -1.810
0.536 -1.810
0.537 -1.800
0.538 -1.800
0.539 -1.790
0.540 -1.790
0.541 -1.780
0.542 -1.780
0.543 -1.770
0.544 -1.770
0.545 -1.760
0.546 -1.760
0.547 -1.750
0.548 -1.750
0.549 -1.750
0.550 -1.740
0.551 -1.740
0.552 -1.730
0.553 -1.730
0.554 -1.720
0.555 -1.720
0.556 -1.710
0.557 -1.710
0.558 -1.700
0.559 -1.700
0.560 -1.690
0.561 -1.690
0.562 -1.680
0.563 -1.680
0.564 -1.670
0.565 -1.670
0.566 -1.670
0.567 -1.660
0.568 -1.660
0.569 -1.650
0.570 -1.650
0.571 -1.640
0.572 -1.640
0.573 -1.630
0.574 -1.630
0.575 -1.620
0.576 -1.620
0.577 -1.610
0.578 -1.610
0.579 -1.610
0.580 -1.600
0.581 -1.600
0.582 -1.590
0.583 -1.590
0.584 -1.580
0.585 -1.580
0.586 -1.570
0.587 -1.570
0.588 -1.560
0.589 -1.560
0.590 -1.560
0.591 -1.550
0.592 -1.550
0.593 -1.540
0.594 -1.540
0.595 -1.530
0.596 -1.530
0.597 -1.520
0.598 -1.520
0.599 -1.520
0.600 -1.510
0.601 -1.510
0.602 -1.500
0.603 -1.500
0.604 -1.490
0.605 -1.490
0.606 -1.490
0.607 -1.480
0.608 -1.480
0.609 -1.470
0.610 -1.470
0.611 -1.460
0.612 -1.460
0.613 -1.460
0.614 -1.450
0.615 -1.450
0.616 -1.440
0.617 -1.440
0.618 -1.430
0.619 -1.430
0.620 -1.430
0.621 -1.420
0.622 -1.420
0.623 -1.410
0.624 -1.410
0.625 -1.400
0.626 -1.400
0.627 -1.400
0.628 -1.390
0.629 -1.390
0.630 -1.380
0.631 -1.380
0.632 -1.370
0.633 -1.370
0.634 -1.370
0.635 -1.360
0.636 -1.360
0.637 -1.350
0.638 -1.350
0.639 -1.350
0.640 -1.340
0.641 -1.340
0.642 -1.330
0.643 -1.330
0.644 -1.330
0.645 -1.320
0.646 -1.320
0.647 -1.310
0.648 -1.310
0.649 -1.300
0.650 -1.300
0.651 -1.300
0.652 -1.290
0.653 -1.290
0.654 -1.280
0.655 -1.280
0.656 -1.280
0.657 -1.270
0.658 -1.270
0.659 -1.260
0.660 -1.260
0.661 -1.260
0.662 -1.250
0.663 -1.250
0.664 -1.240
0.665 -1.240
0.666 -1.240
0.667 -1.230
0.668 -1.230
0.669 -1.230
0.670 -1.220
0.671 -1.220
0.672 -1.210
0.673 -1.210
0.674 -1.210
0.675 -1.200
0.676 -1.200
0.677 -1.190
0.678 -1.190
0.679 -1.190
0.680 -1.180
0.681 -1.180
0.682 -1.170
0.683 -1.170
0.684 -1.170
0.685 -1.160
0.686 -1.160
0.687 -1.160
0.688 -1.150
0.689 -1.150
0.690 -1.140
0.691 -1.140
0.692 -1.140
0.693 -1.130
0.694 -1.130
0.695 -1.120
0.696 -1.120
0.697 -1.120
0.698 -1.110
0.699 -1.110
0.700 -1.110
0.701 -1.100
0.702 -1.100
0.703 -1.090
0.704 -1.090
0.705 -1.090
0.706 -1.080
0.707 -1.080
0.708 -1.080
0.709 -1.070
0.710 -1.070
0.711 -1.060
0.712 -1.060
0.713 -1.060
0.714 -1.050
0.715 -1.050
0.716 -1.050
0.717 -1.040
0.718 -1.040
0.719 -1.040
0.720 -1.030
0.721 -1.030
0.722 -1.020
0.723 -1.020
0.724 -1.020
0.725 -1.010
0.726 -1.010
0.727 -1.010
0.728 -1.000
0.729 -1.000
0.730 -1.000
0.731 -0.990
0.732 -0.990
0.733 -0.980
0.734 -0.980
0.735 -0.980
0.736 -0.970
0.737 -0.970
0.738 -0.970
0.739 -0.960
0.740 -0.960
0.741 -0.960
0.742 -0.950
0.743 -0.950
0.744 -0.950
0.745 -0.940
0.746 -0.940
0.747 -0.930
0.748 -0.930
0.749 -0.930
0.750 -0.920
0.751 -0.920
0.752 -0.920
0.753 -0.910
0.754 -0.910
0.755 -0.910
0.756 -0.900
0.757 -0.900
0.758 -0.900
0.759 -0.890
0.760 -0.890
0.761 -0.890
0.762 -0.880
0.763 -0.880
0.764 -0.880
0.765 -0.870
0.766 -0.870
0.767 -0.870
0.768 -0.860
0.769 -0.860
0.770 -0.860
0.771 -0.850
0.772 -0.850
0.773 -0.840
0.774 -0.840
0.775 -0.840
0.776 -0.830
0.777 -0.830
0.778 -0.830
0.779 -0.820
0.780 -0.820
0.781 -0.820
0.782 -0.810
0.783 -0.810
0.784 -0.810
0.785 -0.800
0.786 -0.800
0.787 -0.800
0.788 -0.790
0.789 -0.790
0.790 -0.790
0.791 -0.780
0.792 -0.780
0.793 -0.780
0.794 -0.770
0.795 -0.770
0.796 -0.770
0.797 -0.760
0.798 -0.760
0.799 -0.760
0.800 -0.750
0.801 -0.750
0.802 -0.750
0.803 -0.740
0.804 -0.740
0.805 -0.740
0.806 -0.730
0.807 -0.730
0.808 -0.730
0.809 -0.720
0.810 -0.720
0.811 -0.720
0.812 -0.720
0.813 -0.710
0.814 -0.710
0.815 -0.710
0.816 -0.700
0.817 -0.700
0.818 -0.700
0.819 -0.690
0.820 -0.690
0.821 -0.690
0.822 -0.680
0.823 -0.680
0.824 -0.680
0.825 -0.670
0.826 -0.670
0.827 -0.670
0.828 -0.660
0.829 -0.660
0.830 -0.660
0.831 -0.650
0.832 -0.650
0.833 -0.650
0.834 -0.640
0.835 -0.640
0.836 -0.640
0.837 -0.640
0.838 -0.630
0.839 -0.630
0.840 -0.630
0.841 -0.620
0.842 -0.620
0.843 -0.620
0.844 -0.610
0.845 -0.610
0.846 -0.610
0.847 -0.600
0.848 -0.600
0.849 -0.600
0.850 -0.590
0.851 -0.590
0.852 -0.590
0.853 -0.580
0.854 -0.580
0.855 -0.580
0.856 -0.580
0.857 -0.570
0.858 -0.570
0.859 -0.570
0.860 -0.560
0.861 -0.560
0.862 -0.560
0.863 -0.550
0.864 -0.550
0.865 -0.550
0.866 -0.540
0.867 -0.540
0.868 -0.540
0.869 -0.530
0.870 -0.530
0.871 -0.530
0.872 -0.530
0.873 -0.520
0.874 -0.520
0.875 -0.520
0.876 -0.510
0.877 -0.510
0.878 -0.510
0.879 -0.500
0.880 -0.500
0.881 -0.500
0.882 -0.490
0.883 -0.490
0.884 -0.490
0.885 -0.480
0.886 -0.480
0.887 -0.480
0.888 -0.480
0.889 -0.470
0.890 -0.470
0.891 -0.470
0.892 -0.460
0.893 -0.460
0.894 -0.460
0.895 -0.450
0.896 -0.450
0.897 -0.450
0.898 -0.440
0.899 -0.440
0.900 -0.440
0.901 -0.430
0.902 -0.430
0.903 -0.430
0.904 -0.420
0.905 -0.420
0.906 -0.420
0.907 -0.420
0.908 -0.410
0.909 -0.410
0.910 -0.410
0.911 -0.400
0.912 -0.400
0.913 -0.400
0.914 -0.390
0.915 -0.390
0.916 -0.390
0.917 -0.380
0.918 -0.380
0.919 -0.380
0.920 -0.370
0.921 -0.370
0.922 -0.370
0.923 -0.360
0.924 -0.360
0.925 -0.360
0.926 -0.350
0.927 -0.350
0.928 -0.350
0.929 -0.340
0.930 -0.340
0.931 -0.340
0.932 -0.330
0.933 -0.330
0.934 -0.320
0.935 -0.320
0.936 -0.320
0.937 -0.310
0.938 -0.310
0.939 -0.310
0.940 -0.300
0.941 -0.300
0.942 -0.300
0.943 -0.290
0.944 -0.290
0.945 -0.280
0.946 -0.280
0.947 -0.280
0.948 -0.270
0.949 -0.270
0.950 -0.260
0.951 -0.260
0.952 -0.260
0.953 -0.250
0.954 -0.250
0.955 -0.240
0.956 -0.240
0.957 -0.240
0.958 -0.230
0.959 -0.230
0.960 -0.220
0.961 -0.220
0.962 -0.210
0.963 -0.210
0.964 -0.200
0.965 -0.200
0.966 -0.190
0.967 -0.190
0.968 -0.180
0.969 -0.180
0.970 -0.170
0.971 -0.170
0.972 -0.160
0.973 -0.160
0.974 -0.150
0.975 -0.150
0.976 -0.140
0.977 -0.130
0.978 -0.130
0.979 -0.120
0.980 -0.120
0.981 -0.110
0.982 -0.100
0.983 -0.090
0.984 -0.090
0.985 -0.080
0.986 -0.070
0.987 -0.060
0.988 -0.050
0.989 -0.040
0.990 -0.030
0.991 -0.020
0.992 -0.010
0.993 0.010
0.994 0.020
0.995 0.040
0.996 0.060
0.997 0.090
0.998 0.120
0.999 0.180
