            z        F_ion        F_enr      V_ion[pMpc3]    V_enr[pMpc3]      V_tot[pMpc3]
   0.3500E+02  -0.1000E+01  -0.1000E+01   0.0000E+00   0.0000E+00   0.7085E-03
   0.3489E+02  -0.1000E+01  -0.1000E+01   0.0000E+00   0.0000E+00   0.7151E-03
   0.3477E+02  -0.1000E+01  -0.1000E+01   0.0000E+00   0.0000E+00   0.7219E-03
   0.3466E+02  -0.1000E+01  -0.1000E+01   0.0000E+00   0.0000E+00   0.7288E-03
   0.3455E+02  -0.1000E+01  -0.1000E+01   0.0000E+00   0.0000E+00   0.7357E-03
   0.3444E+02  -0.1000E+01  -0.1000E+01   0.0000E+00   0.0000E+00   0.7427E-03
   0.3432E+02  -0.1000E+01  -0.1000E+01   0.0000E+00   0.0000E+00   0.7499E-03
   0.3421E+02  -0.1000E+01  -0.1000E+01   0.0000E+00   0.0000E+00   0.7571E-03
   0.3410E+02  -0.1000E+01  -0.1000E+01   0.0000E+00   0.0000E+00   0.7644E-03
   0.3399E+02  -0.1000E+01  -0.1000E+01   0.0000E+00   0.0000E+00   0.7718E-03
   0.3387E+02  -0.1000E+01  -0.1000E+01   0.0000E+00   0.0000E+00   0.7793E-03
   0.3376E+02  -0.1000E+01  -0.1000E+01   0.0000E+00   0.0000E+00   0.7869E-03
   0.3365E+02  -0.1000E+01  -0.1000E+01   0.0000E+00   0.0000E+00   0.7946E-03
   0.3354E+02  -0.1000E+01  -0.1000E+01   0.0000E+00   0.0000E+00   0.8024E-03
   0.3342E+02  -0.1000E+01  -0.1000E+01   0.0000E+00   0.0000E+00   0.8103E-03
   0.3331E+02  -0.1000E+01  -0.1000E+01   0.0000E+00   0.0000E+00   0.8183E-03
   0.3320E+02  -0.1000E+01  -0.1000E+01   0.0000E+00   0.0000E+00   0.8264E-03
   0.3309E+02  -0.1000E+01  -0.1000E+01   0.0000E+00   0.0000E+00   0.8346E-03
   0.3297E+02  -0.1000E+01  -0.1000E+01   0.0000E+00   0.0000E+00   0.8429E-03
   0.3286E+02  -0.1000E+01  -0.1000E+01   0.0000E+00   0.0000E+00   0.8513E-03
   0.3275E+02  -0.1000E+01  -0.1000E+01   0.0000E+00   0.0000E+00   0.8599E-03
   0.3264E+02  -0.1000E+01  -0.1000E+01   0.0000E+00   0.0000E+00   0.8685E-03
   0.3252E+02  -0.1000E+01  -0.1000E+01   0.0000E+00   0.0000E+00   0.8773E-03
   0.3241E+02  -0.1000E+01  -0.1000E+01   0.0000E+00   0.0000E+00   0.8862E-03
   0.3230E+02  -0.1000E+01  -0.1000E+01   0.0000E+00   0.0000E+00   0.8952E-03
   0.3219E+02  -0.1000E+01  -0.1000E+01   0.0000E+00   0.0000E+00   0.9044E-03
   0.3207E+02  -0.1000E+01  -0.1000E+01   0.0000E+00   0.0000E+00   0.9136E-03
   0.3196E+02  -0.1000E+01  -0.1000E+01   0.0000E+00   0.0000E+00   0.9230E-03
   0.3185E+02  -0.1000E+01  -0.1000E+01   0.9303E-11   0.9399E-11   0.9325E-03
   0.3174E+02  -0.1000E+01  -0.1000E+01   0.7395E-08   0.2694E-10   0.9422E-03
   0.3162E+02  -0.1000E+01  -0.1000E+01   0.4187E-07   0.4864E-10   0.9520E-03
   0.3151E+02  -0.1000E+01  -0.1000E+01   0.1036E-06   0.8022E-10   0.9619E-03
   0.3140E+02  -0.1000E+01  -0.1000E+01   0.1815E-06   0.1229E-09   0.9719E-03
   0.3129E+02  -0.1000E+01  -0.1000E+01   0.2839E-06   0.1787E-09   0.9821E-03
   0.3117E+02  -0.1000E+01  -0.1000E+01   0.3790E-06   0.2725E-09   0.9925E-03
   0.3106E+02  -0.1000E+01  -0.1000E+01   0.3889E-06   0.3912E-09   0.1003E-02
   0.3095E+02  -0.1000E+01  -0.1000E+01   0.3978E-06   0.5353E-09   0.1014E-02
   0.3084E+02  -0.1000E+01  -0.1000E+01   0.3983E-06   0.7046E-09   0.1024E-02
   0.3072E+02  -0.1000E+01  -0.1000E+01   0.3897E-06   0.8983E-09   0.1035E-02
   0.3061E+02  -0.1000E+01  -0.1000E+01   0.3776E-06   0.1116E-08   0.1046E-02
   0.3050E+02  -0.1000E+01  -0.1000E+01   0.3634E-06   0.1387E-08   0.1058E-02
   0.3039E+02  -0.1000E+01  -0.1000E+01   0.3592E-06   0.1664E-08   0.1069E-02
   0.3027E+02  -0.1000E+01  -0.1000E+01   0.4060E-06   0.1979E-08   0.1081E-02
   0.3016E+02  -0.1000E+01  -0.1000E+01   0.4807E-06   0.2328E-08   0.1092E-02
   0.3005E+02  -0.1000E+01  -0.1000E+01   0.5637E-06   0.2711E-08   0.1104E-02
   0.2994E+02  -0.1000E+01  -0.1000E+01   0.6472E-06   0.3145E-08   0.1116E-02
   0.2982E+02  -0.1000E+01  -0.1000E+01   0.7475E-06   0.3664E-08   0.1129E-02
   0.2971E+02  -0.1000E+01  -0.1000E+01   0.8149E-06   0.4249E-08   0.1141E-02
   0.2960E+02  -0.1000E+01  -0.1000E+01   0.9600E-06   0.4903E-08   0.1154E-02
   0.2949E+02  -0.1000E+01  -0.1000E+01   0.1146E-05   0.5646E-08   0.1167E-02
   0.2937E+02  -0.1000E+01  -0.1000E+01   0.1324E-05   0.6507E-08   0.1180E-02
   0.2926E+02  -0.1000E+01  -0.1000E+01   0.1334E-05   0.7467E-08   0.1193E-02
   0.2915E+02  -0.1000E+01  -0.1000E+01   0.1371E-05   0.8544E-08   0.1206E-02
   0.2904E+02  -0.1000E+01  -0.1000E+01   0.1466E-05   0.9736E-08   0.1220E-02
   0.2892E+02  -0.1000E+01  -0.1000E+01   0.1577E-05   0.1108E-07   0.1234E-02
   0.2881E+02  -0.1000E+01  -0.1000E+01   0.1579E-05   0.1257E-07   0.1248E-02
   0.2870E+02  -0.1000E+01  -0.1000E+01   0.1639E-05   0.1421E-07   0.1262E-02
   0.2859E+02  -0.1000E+01  -0.1000E+01   0.1723E-05   0.1600E-07   0.1276E-02
   0.2847E+02  -0.1000E+01  -0.1000E+01   0.1788E-05   0.1798E-07   0.1291E-02
   0.2836E+02  -0.1000E+01  -0.1000E+01   0.1760E-05   0.2013E-07   0.1306E-02
   0.2825E+02  -0.1000E+01  -0.1000E+01   0.1779E-05   0.2246E-07   0.1321E-02
   0.2814E+02  -0.1000E+01  -0.1000E+01   0.1825E-05   0.2498E-07   0.1337E-02
   0.2802E+02  -0.1000E+01  -0.1000E+01   0.1868E-05   0.2767E-07   0.1352E-02
   0.2791E+02  -0.1000E+01  -0.1000E+01   0.1883E-05   0.3059E-07   0.1368E-02
   0.2780E+02  -0.1000E+01  -0.1000E+01   0.1805E-05   0.3371E-07   0.1384E-02
   0.2768E+02  -0.1000E+01  -0.1000E+01   0.1763E-05   0.3702E-07   0.1400E-02
   0.2757E+02  -0.1000E+01  -0.1000E+01   0.1691E-05   0.4051E-07   0.1417E-02
   0.2746E+02  -0.1000E+01  -0.1000E+01   0.1626E-05   0.4425E-07   0.1434E-02
   0.2735E+02  -0.1000E+01  -0.1000E+01   0.1652E-05   0.4816E-07   0.1451E-02
   0.2723E+02  -0.1000E+01  -0.1000E+01   0.1722E-05   0.5231E-07   0.1468E-02
   0.2712E+02  -0.1000E+01  -0.1000E+01   0.1805E-05   0.5670E-07   0.1486E-02
   0.2701E+02  -0.1000E+01  -0.1000E+01   0.1924E-05   0.6135E-07   0.1504E-02
   0.2690E+02  -0.1000E+01  -0.1000E+01   0.2157E-05   0.6608E-07   0.1522E-02
   0.2678E+02  -0.1000E+01  -0.1000E+01   0.2320E-05   0.7113E-07   0.1541E-02
   0.2667E+02  -0.1000E+01  -0.1000E+01   0.2469E-05   0.7653E-07   0.1560E-02
   0.2656E+02  -0.1000E+01  -0.1000E+01   0.2451E-05   0.8229E-07   0.1579E-02
   0.2645E+02  -0.1000E+01  -0.1000E+01   0.2474E-05   0.8877E-07   0.1599E-02
   0.2633E+02  -0.1000E+01  -0.1000E+01   0.2591E-05   0.9573E-07   0.1618E-02
   0.2622E+02  -0.1000E+01  -0.1000E+01   0.2907E-05   0.1031E-06   0.1639E-02
   0.2611E+02  -0.1000E+01  -0.1000E+01   0.3560E-05   0.1110E-06   0.1659E-02
   0.2600E+02  -0.1000E+01  -0.1000E+01   0.4433E-05   0.1195E-06   0.1680E-02
   0.2588E+02  -0.1000E+01  -0.1000E+01   0.5520E-05   0.1290E-06   0.1701E-02
   0.2577E+02  -0.1000E+01  -0.1000E+01   0.6610E-05   0.1394E-06   0.1723E-02
   0.2566E+02  -0.1000E+01  -0.1000E+01   0.7806E-05   0.1509E-06   0.1745E-02
   0.2555E+02  -0.1000E+01  -0.1000E+01   0.9260E-05   0.1635E-06   0.1767E-02
   0.2543E+02  -0.1000E+01  -0.1000E+01   0.1045E-04   0.1780E-06   0.1789E-02
   0.2532E+02  -0.1000E+01  -0.1000E+01   0.1116E-04   0.1940E-06   0.1813E-02
   0.2521E+02  -0.1000E+01  -0.1000E+01   0.1136E-04   0.2120E-06   0.1836E-02
   0.2510E+02  -0.1000E+01  -0.1000E+01   0.1201E-04   0.2317E-06   0.1860E-02
   0.2498E+02  -0.1000E+01  -0.1000E+01   0.1333E-04   0.2535E-06   0.1884E-02
   0.2487E+02  -0.1000E+01  -0.1000E+01   0.1504E-04   0.2772E-06   0.1909E-02
   0.2476E+02  -0.1000E+01  -0.1000E+01   0.1651E-04   0.3030E-06   0.1934E-02
   0.2465E+02  -0.1000E+01  -0.1000E+01   0.1807E-04   0.3318E-06   0.1960E-02
   0.2453E+02  -0.1000E+01  -0.1000E+01   0.1982E-04   0.3634E-06   0.1986E-02
   0.2442E+02  -0.1000E+01  -0.1000E+01   0.2145E-04   0.3987E-06   0.2012E-02
   0.2431E+02  -0.1000E+01  -0.1000E+01   0.2323E-04   0.4366E-06   0.2039E-02
   0.2420E+02  -0.1000E+01  -0.1000E+01   0.2461E-04   0.4790E-06   0.2066E-02
   0.2408E+02  -0.1000E+01  -0.1000E+01   0.2611E-04   0.5254E-06   0.2094E-02
   0.2397E+02  -0.1000E+01  -0.1000E+01   0.2798E-04   0.5762E-06   0.2123E-02
   0.2386E+02  -0.1000E+01  -0.1000E+01   0.3010E-04   0.6316E-06   0.2152E-02
   0.2375E+02  -0.1000E+01  -0.1000E+01   0.3242E-04   0.6929E-06   0.2181E-02
   0.2363E+02  -0.1000E+01  -0.1000E+01   0.3516E-04   0.7599E-06   0.2211E-02
   0.2352E+02  -0.1000E+01  -0.1000E+01   0.3889E-04   0.8334E-06   0.2242E-02
   0.2341E+02  -0.1000E+01  -0.1000E+01   0.4355E-04   0.9158E-06   0.2273E-02
   0.2330E+02  -0.1000E+01  -0.1000E+01   0.4748E-04   0.1005E-05   0.2305E-02
   0.2318E+02  -0.1000E+01  -0.1000E+01   0.5060E-04   0.1103E-05   0.2337E-02
   0.2307E+02  -0.1000E+01  -0.1000E+01   0.5313E-04   0.1212E-05   0.2370E-02
   0.2296E+02  -0.1000E+01  -0.1000E+01   0.5674E-04   0.1330E-05   0.2404E-02
   0.2285E+02  -0.1000E+01  -0.1000E+01   0.5940E-04   0.1460E-05   0.2438E-02
   0.2273E+02  -0.1000E+01  -0.1000E+01   0.6204E-04   0.1602E-05   0.2473E-02
   0.2262E+02  -0.1000E+01  -0.1000E+01   0.6601E-04   0.1755E-05   0.2508E-02
   0.2251E+02  -0.1000E+01  -0.1000E+01   0.7129E-04   0.1924E-05   0.2544E-02
   0.2240E+02  -0.1000E+01  -0.1000E+01   0.7558E-04   0.2111E-05   0.2581E-02
   0.2228E+02  -0.1000E+01  -0.1000E+01   0.7947E-04   0.2315E-05   0.2619E-02
   0.2217E+02  -0.1000E+01  -0.1000E+01   0.8646E-04   0.2535E-05   0.2657E-02
   0.2206E+02  -0.1000E+01  -0.1000E+01   0.9496E-04   0.2777E-05   0.2696E-02
   0.2195E+02  -0.1000E+01  -0.1000E+01   0.1039E-03   0.3041E-05   0.2736E-02
   0.2183E+02  -0.1000E+01  -0.1000E+01   0.1142E-03   0.3331E-05   0.2777E-02
   0.2172E+02  -0.1000E+01  -0.1000E+01   0.1254E-03   0.3646E-05   0.2818E-02
   0.2161E+02  -0.1000E+01  -0.1000E+01   0.1347E-03   0.3988E-05   0.2861E-02
   0.2150E+02  -0.1000E+01  -0.1000E+01   0.1420E-03   0.4364E-05   0.2904E-02
   0.2138E+02  -0.1000E+01  -0.1000E+01   0.1496E-03   0.4775E-05   0.2948E-02
   0.2127E+02  -0.1000E+01  -0.1000E+01   0.1587E-03   0.5223E-05   0.2993E-02
   0.2116E+02  -0.1000E+01  -0.1000E+01   0.1685E-03   0.5709E-05   0.3038E-02
   0.2105E+02  -0.1000E+01  -0.1000E+01   0.1762E-03   0.6239E-05   0.3085E-02
   0.2093E+02  -0.1000E+01  -0.1000E+01   0.1865E-03   0.6813E-05   0.3133E-02
   0.2082E+02  -0.1000E+01  -0.1000E+01   0.1970E-03   0.7437E-05   0.3182E-02
   0.2071E+02  -0.1000E+01  -0.1000E+01   0.2093E-03   0.8115E-05   0.3231E-02
   0.2059E+02  -0.1000E+01  -0.1000E+01   0.2219E-03   0.8849E-05   0.3282E-02
   0.2048E+02  -0.1000E+01  -0.1000E+01   0.2406E-03   0.9647E-05   0.3334E-02
   0.2037E+02  -0.1000E+01  -0.1000E+01   0.2592E-03   0.1052E-04   0.3387E-02
   0.2026E+02  -0.1000E+01  -0.1000E+01   0.2768E-03   0.1146E-04   0.3441E-02
   0.2014E+02  -0.1000E+01  -0.1000E+01   0.2901E-03   0.1248E-04   0.3496E-02
   0.2003E+02  -0.1000E+01  -0.1000E+01   0.3031E-03   0.1359E-04   0.3553E-02
   0.1992E+02  -0.1000E+01  -0.1000E+01   0.3196E-03   0.1478E-04   0.3610E-02
   0.1981E+02  -0.1000E+01  -0.1000E+01   0.3351E-03   0.1608E-04   0.3669E-02
   0.1969E+02  -0.1000E+01  -0.1000E+01   0.3497E-03   0.1748E-04   0.3730E-02
   0.1958E+02  -0.1000E+01  -0.1000E+01   0.3678E-03   0.1898E-04   0.3791E-02
   0.1947E+02  -0.1000E+01  -0.1000E+01   0.3835E-03   0.2060E-04   0.3854E-02
   0.1936E+02  -0.1000E+01  -0.1000E+01   0.3924E-03   0.2234E-04   0.3918E-02
   0.1924E+02  -0.1000E+01  -0.1000E+01   0.4058E-03   0.2420E-04   0.3984E-02
   0.1913E+02  -0.1000E+01  -0.1000E+01   0.4279E-03   0.2620E-04   0.4051E-02
   0.1902E+02  -0.1000E+01  -0.1000E+01   0.4532E-03   0.2834E-04   0.4120E-02
   0.1891E+02  -0.1000E+01  -0.1000E+01   0.4723E-03   0.3064E-04   0.4190E-02
   0.1879E+02  -0.1000E+01  -0.1000E+01   0.4871E-03   0.3312E-04   0.4262E-02
   0.1868E+02  -0.1000E+01  -0.1000E+01   0.5032E-03   0.3577E-04   0.4335E-02
   0.1857E+02  -0.1000E+01  -0.1000E+01   0.5248E-03   0.3860E-04   0.4411E-02
   0.1846E+02  -0.1000E+01  -0.1000E+01   0.5516E-03   0.4163E-04   0.4488E-02
   0.1834E+02  -0.1000E+01  -0.1000E+01   0.5807E-03   0.4488E-04   0.4566E-02
   0.1823E+02  -0.1000E+01  -0.1000E+01   0.6113E-03   0.4836E-04   0.4647E-02
   0.1812E+02  -0.1000E+01  -0.1000E+01   0.6338E-03   0.5210E-04   0.4730E-02
   0.1801E+02  -0.1000E+01  -0.1000E+01   0.6632E-03   0.5611E-04   0.4814E-02
   0.1789E+02  -0.1000E+01  -0.1000E+01   0.7080E-03   0.6040E-04   0.4901E-02
   0.1778E+02  -0.1000E+01  -0.1000E+01   0.7503E-03   0.6504E-04   0.4989E-02
   0.1767E+02  -0.1000E+01  -0.1000E+01   0.7827E-03   0.7000E-04   0.5080E-02
   0.1756E+02  -0.1000E+01  -0.1000E+01   0.8249E-03   0.7530E-04   0.5173E-02
   0.1744E+02  -0.1000E+01  -0.1000E+01   0.8621E-03   0.8100E-04   0.5268E-02
   0.1733E+02  -0.1000E+01  -0.1000E+01   0.8807E-03   0.8709E-04   0.5366E-02
   0.1722E+02  -0.1000E+01  -0.1000E+01   0.8955E-03   0.9358E-04   0.5466E-02
   0.1711E+02  -0.1000E+01  -0.1000E+01   0.9210E-03   0.1005E-03   0.5569E-02
   0.1699E+02  -0.1000E+01  -0.1000E+01   0.9526E-03   0.1078E-03   0.5674E-02
   0.1688E+02  -0.1000E+01  -0.1000E+01   0.9897E-03   0.1157E-03   0.5782E-02
   0.1677E+02  -0.1000E+01  -0.1000E+01   0.1037E-02   0.1241E-03   0.5892E-02
   0.1666E+02  -0.1000E+01  -0.1000E+01   0.1081E-02   0.1331E-03   0.6005E-02
   0.1654E+02  -0.1000E+01  -0.1000E+01   0.1127E-02   0.1427E-03   0.6122E-02
   0.1643E+02  -0.1000E+01  -0.1000E+01   0.1177E-02   0.1529E-03   0.6241E-02
   0.1632E+02  -0.1000E+01  -0.1000E+01   0.1226E-02   0.1638E-03   0.6364E-02
   0.1621E+02  -0.1000E+01  -0.1000E+01   0.1262E-02   0.1755E-03   0.6489E-02
   0.1609E+02  -0.1000E+01  -0.1000E+01   0.1307E-02   0.1880E-03   0.6618E-02
   0.1598E+02  -0.1000E+01  -0.1000E+01   0.1370E-02   0.2013E-03   0.6751E-02
   0.1587E+02  -0.1000E+01  -0.1000E+01   0.1430E-02   0.2155E-03   0.6887E-02
   0.1576E+02  -0.1000E+01  -0.1000E+01   0.1478E-02   0.2308E-03   0.7026E-02
   0.1564E+02  -0.1000E+01  -0.1000E+01   0.1537E-02   0.2471E-03   0.7170E-02
   0.1553E+02  -0.1000E+01  -0.1000E+01   0.1592E-02   0.2644E-03   0.7317E-02
   0.1542E+02  -0.1000E+01  -0.1000E+01   0.1644E-02   0.2828E-03   0.7469E-02
   0.1531E+02  -0.1000E+01  -0.1000E+01   0.1702E-02   0.3025E-03   0.7625E-02
   0.1519E+02  -0.1000E+01  -0.1000E+01   0.1761E-02   0.3234E-03   0.7785E-02
   0.1508E+02  -0.1000E+01  -0.1000E+01   0.1825E-02   0.3458E-03   0.7949E-02
   0.1497E+02  -0.1000E+01  -0.1000E+01   0.1877E-02   0.3696E-03   0.8119E-02
   0.1486E+02  -0.1000E+01  -0.1000E+01   0.1941E-02   0.3951E-03   0.8293E-02
   0.1474E+02  -0.1000E+01  -0.1000E+01   0.2037E-02   0.4222E-03   0.8472E-02
   0.1463E+02  -0.1000E+01  -0.1000E+01   0.2129E-02   0.4512E-03   0.8656E-02
   0.1452E+02  -0.1000E+01  -0.1000E+01   0.2204E-02   0.4822E-03   0.8846E-02
   0.1441E+02  -0.1000E+01  -0.1000E+01   0.2330E-02   0.5153E-03   0.9041E-02
   0.1429E+02  -0.1000E+01  -0.1000E+01   0.2417E-02   0.5505E-03   0.9242E-02
   0.1418E+02  -0.1000E+01  -0.1000E+01   0.2489E-02   0.5881E-03   0.9449E-02
   0.1407E+02  -0.1000E+01  -0.1000E+01   0.2584E-02   0.6282E-03   0.9663E-02
   0.1395E+02  -0.1000E+01  -0.1000E+01   0.2637E-02   0.6710E-03   0.9882E-02
   0.1384E+02  -0.1000E+01  -0.1000E+01   0.2734E-02   0.7165E-03   0.1011E-01
   0.1373E+02  -0.1000E+01  -0.1000E+01   0.2862E-02   0.7650E-03   0.1034E-01
   0.1362E+02  -0.1000E+01  -0.1000E+01   0.2982E-02   0.8168E-03   0.1058E-01
   0.1350E+02  -0.1000E+01  -0.1000E+01   0.3086E-02   0.8720E-03   0.1083E-01
   0.1339E+02  -0.1000E+01  -0.1000E+01   0.3211E-02   0.9310E-03   0.1109E-01
   0.1328E+02  -0.1000E+01  -0.1000E+01   0.3354E-02   0.9940E-03   0.1135E-01
   0.1317E+02  -0.1000E+01  -0.1000E+01   0.3500E-02   0.1061E-02   0.1162E-01
   0.1305E+02  -0.1000E+01  -0.1000E+01   0.3597E-02   0.1133E-02   0.1191E-01
   0.1294E+02  -0.1000E+01  -0.1000E+01   0.3724E-02   0.1210E-02   0.1220E-01
   0.1283E+02  -0.1000E+01  -0.1000E+01   0.3817E-02   0.1292E-02   0.1250E-01
   0.1272E+02  -0.1000E+01  -0.1000E+01   0.3931E-02   0.1380E-02   0.1281E-01
   0.1260E+02  -0.1000E+01  -0.1000E+01   0.4076E-02   0.1473E-02   0.1313E-01
   0.1249E+02  -0.1000E+01  -0.1000E+01   0.4190E-02   0.1572E-02   0.1346E-01
   0.1238E+02  -0.1000E+01  -0.1000E+01   0.4328E-02   0.1678E-02   0.1380E-01
   0.1227E+02  -0.1000E+01  -0.1000E+01   0.4486E-02   0.1790E-02   0.1416E-01
   0.1215E+02  -0.1000E+01  -0.1000E+01   0.4623E-02   0.1911E-02   0.1452E-01
   0.1204E+02  -0.1000E+01  -0.1000E+01   0.4763E-02   0.2039E-02   0.1490E-01
   0.1193E+02  -0.1000E+01  -0.1000E+01   0.4935E-02   0.2177E-02   0.1529E-01
   0.1182E+02  -0.1000E+01  -0.1000E+01   0.5150E-02   0.2323E-02   0.1570E-01
   0.1170E+02  -0.1000E+01  -0.1000E+01   0.5379E-02   0.2480E-02   0.1612E-01
   0.1159E+02  -0.1000E+01  -0.1000E+01   0.5583E-02   0.2647E-02   0.1656E-01
   0.1148E+02  -0.1000E+01  -0.1000E+01   0.5673E-02   0.2825E-02   0.1701E-01
   0.1137E+02  -0.1000E+01  -0.1000E+01   0.5822E-02   0.3016E-02   0.1748E-01
   0.1125E+02  -0.1000E+01  -0.1000E+01   0.5990E-02   0.3219E-02   0.1796E-01
   0.1114E+02  -0.1000E+01  -0.1000E+01   0.6158E-02   0.3437E-02   0.1847E-01
   0.1103E+02  -0.1000E+01  -0.1000E+01   0.6365E-02   0.3670E-02   0.1899E-01
   0.1092E+02  -0.1000E+01  -0.1000E+01   0.6500E-02   0.3919E-02   0.1953E-01
   0.1080E+02  -0.1000E+01  -0.1000E+01   0.6692E-02   0.4185E-02   0.2010E-01
   0.1069E+02  -0.1000E+01  -0.1000E+01   0.6994E-02   0.4471E-02   0.2068E-01
   0.1058E+02  -0.1000E+01  -0.1000E+01   0.7355E-02   0.4777E-02   0.2129E-01
   0.1047E+02  -0.1000E+01  -0.1000E+01   0.7718E-02   0.5104E-02   0.2193E-01
   0.1035E+02  -0.1000E+01  -0.1000E+01   0.8049E-02   0.5456E-02   0.2258E-01
   0.1024E+02  -0.1000E+01  -0.1000E+01   0.8366E-02   0.5833E-02   0.2327E-01
   0.1013E+02  -0.1000E+01  -0.1000E+01   0.8702E-02   0.6237E-02   0.2398E-01
   0.1002E+02  -0.1000E+01  -0.1000E+01   0.9289E-02   0.6670E-02   0.2473E-01
   0.9904E+01  -0.1000E+01  -0.1000E+01   0.9626E-02   0.7135E-02   0.2550E-01
   0.9791E+01  -0.1000E+01  -0.1000E+01   0.1002E-01   0.7633E-02   0.2630E-01
   0.9678E+01  -0.1000E+01  -0.1000E+01   0.1045E-01   0.8169E-02   0.2715E-01
   0.9566E+01  -0.1000E+01  -0.1000E+01   0.1084E-01   0.8744E-02   0.2802E-01
   0.9453E+01  -0.1000E+01  -0.1000E+01   0.1135E-01   0.9360E-02   0.2894E-01
   0.9341E+01  -0.1000E+01  -0.1000E+01   0.1198E-01   0.1002E-01   0.2989E-01
   0.9228E+01  -0.1000E+01  -0.1000E+01   0.1260E-01   0.1074E-01   0.3089E-01
   0.9116E+01  -0.1000E+01  -0.1000E+01   0.1338E-01   0.1150E-01   0.3193E-01
   0.9003E+01  -0.1000E+01  -0.1000E+01   0.1424E-01   0.1232E-01   0.3302E-01
   0.8891E+01  -0.1000E+01  -0.1000E+01   0.1526E-01   0.1320E-01   0.3416E-01
   0.8778E+01  -0.1000E+01  -0.1000E+01   0.1644E-01   0.1415E-01   0.3536E-01
   0.8666E+01  -0.1000E+01  -0.1000E+01   0.1761E-01   0.1518E-01   0.3660E-01
   0.8553E+01  -0.1000E+01  -0.1000E+01   0.1918E-01   0.1628E-01   0.3791E-01
   0.8441E+01  -0.1000E+01  -0.1000E+01   0.2089E-01   0.1747E-01   0.3929E-01
   0.8328E+01  -0.1000E+01  -0.1000E+01   0.2242E-01   0.1875E-01   0.4072E-01
   0.8215E+01  -0.1000E+01  -0.1000E+01   0.2488E-01   0.2014E-01   0.4224E-01
   0.8103E+01  -0.1000E+01  -0.1000E+01   0.2715E-01   0.2164E-01   0.4382E-01
   0.7990E+01  -0.1000E+01  -0.1000E+01   0.3005E-01   0.2326E-01   0.4549E-01
   0.7878E+01  -0.1000E+01  -0.1000E+01   0.3314E-01   0.2502E-01   0.4724E-01
   0.7765E+01  -0.1000E+01  -0.1000E+01   0.3638E-01   0.2692E-01   0.4908E-01
   0.7653E+01  -0.1000E+01  -0.1000E+01   0.4021E-01   0.2898E-01   0.5102E-01
   0.7540E+01  -0.1000E+01  -0.1000E+01   0.4491E-01   0.3122E-01   0.5307E-01
   0.7428E+01  -0.1000E+01  -0.1000E+01   0.5041E-01   0.3365E-01   0.5522E-01
   0.7315E+01  -0.1000E+01  -0.1000E+01   0.5613E-01   0.3628E-01   0.5749E-01
   0.7203E+01  -0.1000E+01  -0.1000E+01   0.6237E-01   0.3915E-01   0.5989E-01
   0.7090E+01  -0.1000E+01  -0.1000E+01   0.7049E-01   0.4226E-01   0.6243E-01
   0.6977E+01  -0.1000E+01  -0.1000E+01   0.7896E-01   0.4564E-01   0.6511E-01
   0.6865E+01  -0.1000E+01  -0.1000E+01   0.8767E-01   0.4933E-01   0.6794E-01
   0.6752E+01  -0.1000E+01  -0.1000E+01   0.9952E-01   0.5335E-01   0.7094E-01
   0.6640E+01  -0.1000E+01  -0.1000E+01   0.1118E+00   0.5774E-01   0.7412E-01
   0.6527E+01  -0.1000E+01  -0.1000E+01   0.1273E+00   0.6253E-01   0.7750E-01
   0.6415E+01  -0.1000E+01  -0.1000E+01   0.1448E+00   0.6774E-01   0.8108E-01
   0.6302E+01  -0.1000E+01  -0.1000E+01   0.1657E+00   0.7344E-01   0.8489E-01
   0.6190E+01  -0.1000E+01  -0.1000E+01   0.1894E+00   0.7967E-01   0.8894E-01
   0.6077E+01  -0.1000E+01  -0.1000E+01   0.2198E+00   0.8649E-01   0.9325E-01
   0.5965E+01  -0.1000E+01  -0.1000E+01   0.2576E+00   0.9395E-01   0.9784E-01
   0.5852E+01  -0.1000E+01  -0.1000E+01   0.3044E+00   0.1021E+00   0.1027E+00
   0.5740E+01  -0.1000E+01  -0.1000E+01   0.3558E+00   0.1111E+00   0.1080E+00
   0.5627E+01  -0.1000E+01  -0.1000E+01   0.4206E+00   0.1209E+00   0.1136E+00
   0.5514E+01  -0.1000E+01  -0.1000E+01   0.5045E+00   0.1318E+00   0.1196E+00
   0.5402E+01  -0.1000E+01  -0.1000E+01   0.5928E+00   0.1436E+00   0.1260E+00
   0.5289E+01  -0.1000E+01  -0.1000E+01   0.7029E+00   0.1567E+00   0.1329E+00
   0.5177E+01  -0.1000E+01  -0.1000E+01   0.8281E+00   0.1711E+00   0.1403E+00
   0.5064E+01  -0.1000E+01  -0.1000E+01   0.9837E+00   0.1870E+00   0.1482E+00
   0.4952E+01  -0.1000E+01  -0.1000E+01   0.1172E+01   0.2046E+00   0.1568E+00
   0.4839E+01  -0.1000E+01  -0.1000E+01   0.1400E+01   0.2242E+00   0.1660E+00
   0.4727E+01  -0.1000E+01  -0.1000E+01   0.1668E+01   0.2458E+00   0.1760E+00
   0.4614E+01  -0.1000E+01  -0.1000E+01   0.1971E+01   0.2698E+00   0.1868E+00
   0.4502E+01  -0.1000E+01  -0.1000E+01   0.2328E+01   0.2963E+00   0.1985E+00
   0.4389E+01  -0.1000E+01  -0.1000E+01   0.2763E+01   0.3260E+00   0.2112E+00
   0.4277E+01  -0.1000E+01  -0.1000E+01   0.3321E+01   0.3590E+00   0.2250E+00
   0.4164E+01  -0.1000E+01  -0.1000E+01   0.3943E+01   0.3961E+00   0.2400E+00
   0.4051E+01  -0.1000E+01  -0.1000E+01   0.4691E+01   0.4375E+00   0.2564E+00
   0.3939E+01  -0.1000E+01  -0.1000E+01   0.5581E+01   0.4840E+00   0.2744E+00
   0.3826E+01  -0.1000E+01  -0.1000E+01   0.6675E+01   0.5361E+00   0.2940E+00
   0.3714E+01  -0.1000E+01  -0.1000E+01   0.7991E+01   0.5945E+00   0.3156E+00
   0.3601E+01  -0.1000E+01  -0.1000E+01   0.9666E+01   0.6603E+00   0.3393E+00
   0.3489E+01  -0.1000E+01  -0.1000E+01   0.1176E+02   0.7348E+00   0.3655E+00
   0.3376E+01  -0.1000E+01  -0.1000E+01   0.1419E+02   0.8186E+00   0.3944E+00
   0.3264E+01  -0.1000E+01  -0.1000E+01   0.1708E+02   0.9137E+00   0.4265E+00
   0.3151E+01  -0.1000E+01  -0.1000E+01   0.2104E+02   0.1022E+01   0.4621E+00
   0.3039E+01  -0.1000E+01  -0.1000E+01   0.2545E+02   0.1144E+01   0.5018E+00
   0.2926E+01  -0.1000E+01  -0.1000E+01   0.3081E+02   0.1285E+01   0.5462E+00
   0.2814E+01  -0.1000E+01  -0.1000E+01   0.3778E+02   0.1446E+01   0.5960E+00
   0.2701E+01  -0.1000E+01  -0.1000E+01   0.4643E+02   0.1632E+01   0.6520E+00
   0.2588E+01  -0.1000E+01  -0.1000E+01   0.5727E+02   0.1846E+01   0.7153E+00
   0.2476E+01  -0.1000E+01  -0.1000E+01   0.7140E+02   0.2094E+01   0.7871E+00
   0.2363E+01  -0.1000E+01  -0.1000E+01   0.8808E+02   0.2384E+01   0.8688E+00
   0.2251E+01  -0.1000E+01  -0.1000E+01   0.1083E+03   0.2719E+01   0.9622E+00
   0.2138E+01  -0.1000E+01  -0.1000E+01   0.1348E+03   0.3113E+01   0.1069E+01
   0.2026E+01  -0.1000E+01  -0.1000E+01   0.1667E+03   0.3577E+01   0.1193E+01
   0.1913E+01  -0.1000E+01  -0.1000E+01   0.2075E+03   0.4125E+01   0.1337E+01
   0.1801E+01  -0.1000E+01  -0.1000E+01   0.2587E+03   0.4774E+01   0.1505E+01
   0.1688E+01  -0.1000E+01  -0.1000E+01   0.3279E+03   0.5550E+01   0.1702E+01
   0.1576E+01  -0.1000E+01  -0.1000E+01   0.4158E+03   0.6470E+01   0.1935E+01
   0.1463E+01  -0.1000E+01  -0.1000E+01   0.5325E+03   0.7582E+01   0.2212E+01
   0.1350E+01  -0.1000E+01  -0.1000E+01   0.6878E+03   0.8936E+01   0.2545E+01
   0.1238E+01  -0.1000E+01  -0.1000E+01   0.8802E+03   0.1060E+02   0.2949E+01
   0.1125E+01  -0.1000E+01  -0.1000E+01   0.1154E+04   0.1268E+02   0.3443E+01
   0.1013E+01  -0.1000E+01  -0.1000E+01   0.1502E+04   0.1526E+02   0.4053E+01
   0.9003E+00  -0.1000E+01  -0.1000E+01   0.1931E+04   0.1855E+02   0.4817E+01
   0.7878E+00  -0.1000E+01  -0.1000E+01   0.2602E+04   0.2273E+02   0.5785E+01
   0.6752E+00  -0.1000E+01  -0.1000E+01   0.3491E+04   0.2812E+02   0.7031E+01
   0.5627E+00  -0.1000E+01  -0.1000E+01   0.4702E+04   0.3498E+02   0.8662E+01
   0.4502E+00  -0.1000E+01  -0.1000E+01   0.6444E+04   0.4381E+02   0.1084E+02
   0.3376E+00  -0.1000E+01  -0.1000E+01   0.8724E+04   0.5586E+02   0.1381E+02
   0.2251E+00  -0.1000E+01  -0.1000E+01   0.1190E+05   0.7271E+02   0.1798E+02
   0.1125E+00  -0.1000E+01  -0.1000E+01   0.1736E+05   0.9709E+02   0.2400E+02
   0.0000E+00  -0.1000E+01  -0.1000E+01   0.2504E+05   0.1337E+03   0.3305E+02
